05_fifo_and_single_cycle_cpu/05_07_cpu_baseline/dump.vcd
$date
	Wed Apr 16 21:17:50 2025
$end
$version
	Icarus Verilog
$end
$timescale
	1s
$end
$scope module tb $end
$var wire 32 ! regData [31:0] $end
$var wire 32 " imData [31:0] $end
$var wire 32 # imAddr [31:0] $end
$var parameter 32 $ ADDR_W $end
$var parameter 32 % ROM_SIZE $end
$var reg 1 & clk $end
$var reg 32 ' prevImAddr [31:0] $end
$var reg 32 ( prevRegData [31:0] $end
$var reg 5 ) regAddr [4:0] $end
$var reg 1 * rst $end
$var reg 32 + cycle [31:0] $end
$var reg 1 , wasRst $end
$scope module cpu $end
$var wire 1 & clk $end
$var wire 32 - instr [31:0] $end
$var wire 5 . regAddr [4:0] $end
$var wire 1 * rst $end
$var wire 1 / wdSrc $end
$var wire 32 0 wd3 [31:0] $end
$var wire 32 1 srcB [31:0] $end
$var wire 5 2 rs2 [4:0] $end
$var wire 5 3 rs1 [4:0] $end
$var wire 1 4 regWrite $end
$var wire 32 5 regData [31:0] $end
$var wire 32 6 rd2 [31:0] $end
$var wire 32 7 rd1 [31:0] $end
$var wire 32 8 rd0 [31:0] $end
$var wire 5 9 rd [4:0] $end
$var wire 1 : pcSrc $end
$var wire 32 ; pcPlus4 [31:0] $end
$var wire 32 < pcNext [31:0] $end
$var wire 32 = pcBranch [31:0] $end
$var wire 32 > pc [31:0] $end
$var wire 32 ? immU [31:0] $end
$var wire 32 @ immI [31:0] $end
$var wire 32 A immB [31:0] $end
$var wire 32 B imData [31:0] $end
$var wire 32 C imAddr [31:0] $end
$var wire 7 D cmdOp [6:0] $end
$var wire 7 E cmdF7 [6:0] $end
$var wire 3 F cmdF3 [2:0] $end
$var wire 1 G aluZero $end
$var wire 1 H aluSrc $end
$var wire 32 I aluResult [31:0] $end
$var wire 3 J aluControl [2:0] $end
$scope module alu $end
$var wire 32 K srcB [31:0] $end
$var wire 1 G zero $end
$var wire 32 L srcA [31:0] $end
$var wire 3 M oper [2:0] $end
$var reg 32 N result [31:0] $end
$upscope $end
$scope module i_rf $end
$var wire 5 O a0 [4:0] $end
$var wire 1 & clk $end
$var wire 32 P wd3 [31:0] $end
$var wire 1 4 we3 $end
$var wire 32 Q rd2 [31:0] $end
$var wire 32 R rd1 [31:0] $end
$var wire 32 S rd0 [31:0] $end
$var wire 5 T a3 [4:0] $end
$var wire 5 U a2 [4:0] $end
$var wire 5 V a1 [4:0] $end
$upscope $end
$scope module id $end
$var wire 32 W instr [31:0] $end
$var wire 5 X rs2 [4:0] $end
$var wire 5 Y rs1 [4:0] $end
$var wire 5 Z rd [4:0] $end
$var wire 7 [ cmdOp [6:0] $end
$var wire 7 \ cmdF7 [6:0] $end
$var wire 3 ] cmdF3 [2:0] $end
$var reg 32 ^ immB [31:0] $end
$var reg 32 _ immI [31:0] $end
$var reg 32 ` immU [31:0] $end
$upscope $end
$scope module r_pc $end
$var wire 1 & clk $end
$var wire 32 a d [31:0] $end
$var wire 1 * rst $end
$var reg 32 b q [31:0] $end
$upscope $end
$scope module sm_control $end
$var wire 1 G aluZero $end
$var wire 3 c cmdF3 [2:0] $end
$var wire 7 d cmdF7 [6:0] $end
$var wire 7 e cmdOp [6:0] $end
$var wire 1 : pcSrc $end
$var reg 3 f aluControl [2:0] $end
$var reg 1 H aluSrc $end
$var reg 1 g branch $end
$var reg 1 h condZero $end
$var reg 1 4 regWrite $end
$var reg 1 / wdSrc $end
$upscope $end
$upscope $end
$scope module i_rom $end
$var wire 10 i a [9:0] $end
$var wire 32 j rd [31:0] $end
$var parameter 32 k ADDR_W $end
$var parameter 32 l SIZE $end
$upscope $end
$upscope $end
$enddefinitions $end
$comment Show the parameter values. $end
$dumpall
b10000000000 l
b1010 k
b10000000000 %
b1010 $
$end
#0
$dumpvars
bx j
bx i
0h
0g
b0 f
bx e
bx d
bx c
bx b
bx a
bx000000000000 `
bx _
bx0 ^
bx ]
bx \
bx [
bx Z
bx Y
bx X
bx W
bx V
bx U
bx T
bx S
bx R
bx Q
bx P
b1010 O
bx N
b0 M
bx L
bx K
b0 J
bx I
0H
xG
bx F
bx E
bx D
b0xxxxxxxxxxxxxxxxxxxxxxxxxxxxxx C
bx B
bx0 A
bx @
bx000000000000 ?
bx >
bx =
bx <
bx ;
0:
bx 9
bx 8
bx 7
bx 6
bx 5
04
bx 3
bx 2
bx 1
bx 0
0/
b1010 .
bx -
0,
b0 +
x*
b1010 )
bx (
bx '
0&
b0xxxxxxxxxxxxxxxxxxxxxxxxxxxxxx #
bx "
bx !
$end
#5
b0xxxxxxxxxxxxxxxxxxxxxxxxxxxxxx '
b1 +
1&
#10
0&
#15
b10 +
1*
1&
#20
0&
#25
b100100011 0
b100100011 P
0G
b100100011 I
b100100011 N
b100100011 1
b100100011 K
b0 7
b0 L
b0 R
1H
14
b10010001100000000000000000000 ?
b10010001100000000000000000000 `
b100100100100 =
b100100100100 A
b100100100100 ^
b100100011 @
b100100011 _
b10011 D
b10011 [
b10011 e
b101 9
b101 T
b101 Z
b0 F
b0 ]
b0 c
b0 3
b0 V
b0 Y
b11 2
b11 U
b11 X
b1001 E
b1001 \
b1001 d
b10010001100000000001010010011 -
b10010001100000000001010010011 W
b10010001100000000001010010011 "
b10010001100000000001010010011 B
b10010001100000000001010010011 j
b0 i
b0 #
b0 C
b100 <
b100 a
b100 ;
b0 >
b0 b
1,
b11 +
1&
#30
0&
#35
b0 '
b100 +
0*
1&
#40
0&
#45
b10010001101000101000000000000 0
b10010001101000101000000000000 P
bx 1
bx K
xG
bx I
bx N
1/
0H
14
bx 7
bx L
bx R
b10010001101000101000000000000 ?
b10010001101000101000000000000 `
b100100110 A
b100100110 ^
b110111 D
b110111 [
b110111 e
b110 9
b110 T
b110 Z
b101 F
b101 ]
b101 c
b1000 3
b1000 V
b1000 Y
b10010001101000101001100110111 -
b10010001101000101001100110111 W
b10010001101000101001100110111 "
b10010001101000101001100110111 B
b10010001101000101001100110111 j
b1 i
b1 #
b1 C
b1000 <
b1000 a
b1000 ;
b100101010 =
b100 >
b100 b
b101 +
1&
#50
0&
#55
0G
b10010001101000101011001111000 I
b10010001101000101011001111000 N
b11001111000 1
b11001111000 K
b10010001101000101011001111000 0
b10010001101000101011001111000 P
b10010001101000101000000000000 7
b10010001101000101000000000000 L
b10010001101000101000000000000 R
1H
0/
14
b1100111100000110000000000000000 ?
b1100111100000110000000000000000 `
b11001100110 A
b11001100110 ^
b11001111000 @
b11001111000 _
b10011 D
b10011 [
b10011 e
b0 F
b0 ]
b0 c
b110 3
b110 V
b110 Y
b11000 2
b11000 U
b11000 X
b110011 E
b110011 \
b110011 d
b1100111100000110000001100010011 -
b1100111100000110000001100010011 W
b1100111100000110000001100010011 "
b1100111100000110000001100010011 B
b1100111100000110000001100010011 j
b10 i
b10 #
b10 C
b1100 <
b1100 a
b1 '
b110 +
b1100 ;
b11001101110 =
b1000 >
b1000 b
1&
#60
0&
#65
xG
bx 1
bx K
1/
0H
14
b10010001101000101000000000000 ?
b10010001101000101000000000000 `
b100100100110 A
b100100100110 ^
b100100011 @
b100100011 _
b110111 D
b110111 [
b110111 e
b111 9
b111 T
b111 Z
b101 F
b101 ]
b101 c
b1000 3
b1000 V
b1000 Y
b11 2
b11 U
b11 X
b1001 E
b1001 \
b1001 d
b10010001101000101000000000000 0
b10010001101000101000000000000 P
b10010001101000101001110110111 -
b10010001101000101001110110111 W
b10010001101000101001110110111 "
b10010001101000101001110110111 B
b10010001101000101001110110111 j
b11 i
bx I
bx N
b11 #
b11 C
b10000 <
b10000 a
bx 7
bx L
bx R
b10000 ;
b100100110010 =
b1100 >
b1100 b
b10 '
b111 +
1&
#70
0&
#75
0G
b10010001101000101000000000000 I
b10010001101000101000000000000 N
b0 1
b0 K
b10010001101000101000000000000 0
b10010001101000101000000000000 P
b10010001101000101000000000000 7
b10010001101000101000000000000 L
b10010001101000101000000000000 R
b0 6
b0 Q
1H
0/
14
b111000000000000000 ?
b111000000000000000 `
b100000000110 A
b100000000110 ^
b0 @
b0 _
b10011 D
b10011 [
b10011 e
b0 F
b0 ]
b0 c
b111 3
b111 V
b111 Y
b0 2
b0 U
b0 X
b0 E
b0 \
b0 d
b111000001110010011 -
b111000001110010011 W
b111000001110010011 "
b111000001110010011 B
b111000001110010011 j
b100 i
b100 #
b100 C
b10100 <
b10100 a
b11 '
b1000 +
b10100 ;
b100000010110 =
b10000 >
b10000 b
1&
#80
0&
#85
b11111111111111111111111011011101 0
b11111111111111111111111011011101 P
b11111111111111111111111011011101 I
b11111111111111111111111011011101 N
b11111111111111111111111011011101 1
b11111111111111111111111011011101 K
b0 7
b0 L
b0 R
bx 6
bx Q
1H
14
b11101101110100000000000000000000 ?
b11101101110100000000000000000000 `
b11111111111111111111011011011100 A
b11111111111111111111011011011100 ^
b11111111111111111111111011011101 @
b11111111111111111111111011011101 _
b11100 9
b11100 T
b11100 Z
b0 3
b0 V
b0 Y
b11101 2
b11101 U
b11101 X
b1110110 E
b1110110 \
b1110110 d
b11101101110100000000111000010011 -
b11101101110100000000111000010011 W
b11101101110100000000111000010011 "
b11101101110100000000111000010011 B
b11101101110100000000111000010011 j
b101 i
b101 #
b101 C
b11000 <
b11000 a
b11000 ;
b11111111111111111111011011110000 =
b10100 >
b10100 b
b100 '
b1001 +
1&
#90
0&
#95
b0 0
b0 P
1G
b0 I
b0 N
b0 1
b0 K
b0 6
b0 Q
0H
14
b0 ?
b0 `
b1010 A
b1010 ^
b0 @
b0 _
b110011 D
b110011 [
b110011 e
b1010 9
b1010 T
b1010 Z
b0 2
b0 U
b0 X
b0 E
b0 \
b0 d
b10100110011 -
b10100110011 W
b10100110011 "
b10100110011 B
b10100110011 j
b110 i
b110 #
b110 C
b11100 <
b11100 a
b101 '
b1010 +
b11100 ;
b100010 =
b11000 >
b11000 b
1&
#100
0&
#105
b1 0
b1 P
0G
b1 I
b1 N
b1 1
b1 K
1H
14
bx 6
bx Q
b100000000000000000000 ?
b100000000000000000000 `
b100000000100 A
b100000000100 ^
b1 @
b1 _
b10011 D
b10011 [
b10011 e
b101 9
b101 T
b101 Z
b1 2
b1 U
b1 X
b100000000001010010011 -
b100000000001010010011 W
b100000000001010010011 "
b100000000001010010011 B
b100000000001010010011 j
b111 i
b0 !
b0 5
b111 #
b111 C
b100000 <
b100000 a
b0 8
b0 S
b100000 ;
b100000100000 =
b11100 >
b11100 b
b110 '
b1011 +
1&
#110
0&
#115
0H
14
b1 6
b1 Q
b10101010000000000000000 ?
b10101010000000000000000 `
b110 A
b110 ^
b101 @
b101 _
b110011 D
b110011 [
b110011 e
b110 9
b110 T
b110 Z
b1010 3
b1010 V
b1010 Y
b101 2
b101 U
b101 X
b10101010000001100110011 -
b10101010000001100110011 W
b10101010000001100110011 "
b10101010000001100110011 B
b10101010000001100110011 j
b1000 i
b1000 #
b1000 C
b100100 <
b100100 a
b0 (
b111 '
b1100 +
b100100 ;
b100110 =
b100000 >
b100000 b
1&
#120
0&
#125
b10100000000000000000000 ?
b10100000000000000000000 `
b1010 A
b1010 ^
b1010 9
b1010 T
b1010 Z
b0 3
b0 V
b0 Y
b10100000000010100110011 -
b10100000000010100110011 W
b10100000000010100110011 "
b10100000000010100110011 B
b10100000000010100110011 j
b1001 i
b1001 #
b1001 C
b101000 <
b101000 a
b101000 ;
b101110 =
b100100 >
b100100 b
b1000 '
b1101 +
1&
#130
0&
#135
b11000000000000000000000 ?
b11000000000000000000000 `
b100000000100 A
b100000000100 ^
b110 @
b110 _
b101 9
b101 T
b101 Z
b110 2
b110 U
b110 X
b1 !
b1 5
b11000000000001010110011 -
b11000000000001010110011 W
b11000000000001010110011 "
b11000000000001010110011 B
b11000000000001010110011 j
b1010 i
b1 8
b1 S
b1010 #
b1010 C
b101100 <
b101100 a
b1001 '
b1110 +
b101100 ;
b100000101100 =
b101000 >
b101000 b
1&
#140
0&
#145
1G
b0 0
b0 P
b0 1
b0 K
b0 I
b0 N
1:
b0 6
b0 Q
b100 J
b100 M
b100 f
1h
1g
04
b11111110000000000000000000000000 ?
b11111110000000000000000000000000 `
b11111111111111111111111111110100 A
b11111111111111111111111111110100 ^
b11111111111111111111111111100000 @
b11111111111111111111111111100000 _
b1100011 D
b1100011 [
b1100011 e
b10101 9
b10101 T
b10101 Z
b0 2
b0 U
b0 X
b1111111 E
b1111111 \
b1111111 d
b11111110000000000000101011100011 -
b11111110000000000000101011100011 W
b11111110000000000000101011100011 "
b11111110000000000000101011100011 B
b11111110000000000000101011100011 j
b1011 i
b1011 #
b1011 C
b100000 <
b100000 a
b110000 ;
b100000 =
b101100 >
b101100 b
b1 (
b1010 '
b1111 +
1&
#150
0&
#155
b10 0
b10 P
b1 1
b1 K
0G
b10 I
b10 N
0:
b1 7
b1 L
b1 R
b1 6
b1 Q
14
b0 J
b0 M
b0 f
0h
0g
b10101010000000000000000 ?
b10101010000000000000000 `
b110 A
b110 ^
b101 @
b101 _
b110011 D
b110011 [
b110011 e
b110 9
b110 T
b110 Z
b1010 3
b1010 V
b1010 Y
b101 2
b101 U
b101 X
b0 E
b0 \
b0 d
b10101010000001100110011 -
b10101010000001100110011 W
b10101010000001100110011 "
b10101010000001100110011 B
b10101010000001100110011 j
b1000 i
b1000 #
b1000 C
b100100 <
b100100 a
b1011 '
b10000 +
b100100 ;
b100110 =
b100000 >
b100000 b
1&
#160
0&
#165
b1 0
b1 P
b1 I
b1 N
b0 7
b0 L
b0 R
b10100000000000000000000 ?
b10100000000000000000000 `
b1010 A
b1010 ^
b1010 9
b1010 T
b1010 Z
b0 3
b0 V
b0 Y
b10100000000010100110011 -
b10100000000010100110011 W
b10100000000010100110011 "
b10100000000010100110011 B
b10100000000010100110011 j
b1001 i
b1001 #
b1001 C
b101000 <
b101000 a
b101000 ;
b101110 =
b100100 >
b100100 b
b1000 '
b10001 +
1&
#170
0&
#175
b10 0
b10 P
b10 I
b10 N
b10 1
b10 K
b10 6
b10 Q
b11000000000000000000000 ?
b11000000000000000000000 `
b100000000100 A
b100000000100 ^
b110 @
b110 _
b101 9
b101 T
b101 Z
b110 2
b110 U
b110 X
b11000000000001010110011 -
b11000000000001010110011 W
b11000000000001010110011 "
b11000000000001010110011 B
b11000000000001010110011 j
b1010 i
b1010 #
b1010 C
b101100 <
b101100 a
b1001 '
b10010 +
b101100 ;
b100000101100 =
b101000 >
b101000 b
1&
#180
0&
#185
1G
b0 0
b0 P
b0 1
b0 K
b0 I
b0 N
1:
b0 6
b0 Q
b100 J
b100 M
b100 f
1h
1g
04
b11111110000000000000000000000000 ?
b11111110000000000000000000000000 `
b11111111111111111111111111110100 A
b11111111111111111111111111110100 ^
b11111111111111111111111111100000 @
b11111111111111111111111111100000 _
b1100011 D
b1100011 [
b1100011 e
b10101 9
b10101 T
b10101 Z
b0 2
b0 U
b0 X
b1111111 E
b1111111 \
b1111111 d
b11111110000000000000101011100011 -
b11111110000000000000101011100011 W
b11111110000000000000101011100011 "
b11111110000000000000101011100011 B
b11111110000000000000101011100011 j
b1011 i
b1011 #
b1011 C
b100000 <
b100000 a
b110000 ;
b100000 =
b101100 >
b101100 b
b1010 '
b10011 +
1&
#190
0&
#195
b11 0
b11 P
b10 1
b10 K
0G
b11 I
b11 N
0:
b1 7
b1 L
b1 R
b10 6
b10 Q
14
b0 J
b0 M
b0 f
0h
0g
b10101010000000000000000 ?
b10101010000000000000000 `
b110 A
b110 ^
b101 @
b101 _
b110011 D
b110011 [
b110011 e
b110 9
b110 T
b110 Z
b1010 3
b1010 V
b1010 Y
b101 2
b101 U
b101 X
b0 E
b0 \
b0 d
b10101010000001100110011 -
b10101010000001100110011 W
b10101010000001100110011 "
b10101010000001100110011 B
b10101010000001100110011 j
b1000 i
b1000 #
b1000 C
b100100 <
b100100 a
b1011 '
b10100 +
b100100 ;
b100110 =
b100000 >
b100000 b
1&
#200
0&
#205
b10 0
b10 P
b10 I
b10 N
b0 7
b0 L
b0 R
b10100000000000000000000 ?
b10100000000000000000000 `
b1010 A
b1010 ^
b1010 9
b1010 T
b1010 Z
b0 3
b0 V
b0 Y
b10100000000010100110011 -
b10100000000010100110011 W
b10100000000010100110011 "
b10100000000010100110011 B
b10100000000010100110011 j
b1001 i
b1001 #
b1001 C
b101000 <
b101000 a
b101000 ;
b101110 =
b100100 >
b100100 b
b1000 '
b10101 +
1&
#210
0&
#215
b11 0
b11 P
b11 I
b11 N
b11 1
b11 K
b11 6
b11 Q
b11000000000000000000000 ?
b11000000000000000000000 `
b100000000100 A
b100000000100 ^
b110 @
b110 _
b101 9
b101 T
b101 Z
b110 2
b110 U
b110 X
b10 !
b10 5
b11000000000001010110011 -
b11000000000001010110011 W
b11000000000001010110011 "
b11000000000001010110011 B
b11000000000001010110011 j
b1010 i
b10 8
b10 S
b1010 #
b1010 C
b101100 <
b101100 a
b1001 '
b10110 +
b101100 ;
b100000101100 =
b101000 >
b101000 b
1&
#220
0&
#225
1G
b0 0
b0 P
b0 1
b0 K
b0 I
b0 N
1:
b0 6
b0 Q
b100 J
b100 M
b100 f
1h
1g
04
b11111110000000000000000000000000 ?
b11111110000000000000000000000000 `
b11111111111111111111111111110100 A
b11111111111111111111111111110100 ^
b11111111111111111111111111100000 @
b11111111111111111111111111100000 _
b1100011 D
b1100011 [
b1100011 e
b10101 9
b10101 T
b10101 Z
b0 2
b0 U
b0 X
b1111111 E
b1111111 \
b1111111 d
b11111110000000000000101011100011 -
b11111110000000000000101011100011 W
b11111110000000000000101011100011 "
b11111110000000000000101011100011 B
b11111110000000000000101011100011 j
b1011 i
b1011 #
b1011 C
b100000 <
b100000 a
b110000 ;
b100000 =
b101100 >
b101100 b
b10 (
b1010 '
b10111 +
1&
#230
0&
#235
b101 0
b101 P
b11 1
b11 K
0G
b101 I
b101 N
0:
b10 7
b10 L
b10 R
b11 6
b11 Q
14
b0 J
b0 M
b0 f
0h
0g
b10101010000000000000000 ?
b10101010000000000000000 `
b110 A
b110 ^
b101 @
b101 _
b110011 D
b110011 [
b110011 e
b110 9
b110 T
b110 Z
b1010 3
b1010 V
b1010 Y
b101 2
b101 U
b101 X
b0 E
b0 \
b0 d
b10101010000001100110011 -
b10101010000001100110011 W
b10101010000001100110011 "
b10101010000001100110011 B
b10101010000001100110011 j
b1000 i
b1000 #
b1000 C
b100100 <
b100100 a
b1011 '
b11000 +
b100100 ;
b100110 =
b100000 >
b100000 b
1&
#240
0&
#245
b11 0
b11 P
b11 I
b11 N
b0 7
b0 L
b0 R
b10100000000000000000000 ?
b10100000000000000000000 `
b1010 A
b1010 ^
b1010 9
b1010 T
b1010 Z
b0 3
b0 V
b0 Y
b10100000000010100110011 -
b10100000000010100110011 W
b10100000000010100110011 "
b10100000000010100110011 B
b10100000000010100110011 j
b1001 i
b1001 #
b1001 C
b101000 <
b101000 a
b101000 ;
b101110 =
b100100 >
b100100 b
b1000 '
b11001 +
1&
#250
0&
#255
b101 0
b101 P
b101 I
b101 N
b101 1
b101 K
b101 6
b101 Q
b11000000000000000000000 ?
b11000000000000000000000 `
b100000000100 A
b100000000100 ^
b110 @
b110 _
b101 9
b101 T
b101 Z
b110 2
b110 U
b110 X
b11 !
b11 5
b11000000000001010110011 -
b11000000000001010110011 W
b11000000000001010110011 "
b11000000000001010110011 B
b11000000000001010110011 j
b1010 i
b11 8
b11 S
b1010 #
b1010 C
b101100 <
b101100 a
b1001 '
b11010 +
b101100 ;
b100000101100 =
b101000 >
b101000 b
1&
#260
0&
#265
1G
b0 0
b0 P
b0 1
b0 K
b0 I
b0 N
1:
b0 6
b0 Q
b100 J
b100 M
b100 f
1h
1g
04
b11111110000000000000000000000000 ?
b11111110000000000000000000000000 `
b11111111111111111111111111110100 A
b11111111111111111111111111110100 ^
b11111111111111111111111111100000 @
b11111111111111111111111111100000 _
b1100011 D
b1100011 [
b1100011 e
b10101 9
b10101 T
b10101 Z
b0 2
b0 U
b0 X
b1111111 E
b1111111 \
b1111111 d
b11111110000000000000101011100011 -
b11111110000000000000101011100011 W
b11111110000000000000101011100011 "
b11111110000000000000101011100011 B
b11111110000000000000101011100011 j
b1011 i
b1011 #
b1011 C
b100000 <
b100000 a
b110000 ;
b100000 =
b101100 >
b101100 b
b11 (
b1010 '
b11011 +
1&
#270
0&
#275
b1000 0
b1000 P
b101 1
b101 K
0G
b1000 I
b1000 N
0:
b11 7
b11 L
b11 R
b101 6
b101 Q
14
b0 J
b0 M
b0 f
0h
0g
b10101010000000000000000 ?
b10101010000000000000000 `
b110 A
b110 ^
b101 @
b101 _
b110011 D
b110011 [
b110011 e
b110 9
b110 T
b110 Z
b1010 3
b1010 V
b1010 Y
b101 2
b101 U
b101 X
b0 E
b0 \
b0 d
b10101010000001100110011 -
b10101010000001100110011 W
b10101010000001100110011 "
b10101010000001100110011 B
b10101010000001100110011 j
b1000 i
b1000 #
b1000 C
b100100 <
b100100 a
b1011 '
b11100 +
b100100 ;
b100110 =
b100000 >
b100000 b
1&
#280
0&
#285
b101 0
b101 P
b101 I
b101 N
b0 7
b0 L
b0 R
b10100000000000000000000 ?
b10100000000000000000000 `
b1010 A
b1010 ^
b1010 9
b1010 T
b1010 Z
b0 3
b0 V
b0 Y
b10100000000010100110011 -
b10100000000010100110011 W
b10100000000010100110011 "
b10100000000010100110011 B
b10100000000010100110011 j
b1001 i
b1001 #
b1001 C
b101000 <
b101000 a
b101000 ;
b101110 =
b100100 >
b100100 b
b1000 '
b11101 +
1&
#290
0&
#295
b1000 0
b1000 P
b1000 I
b1000 N
b1000 1
b1000 K
b1000 6
b1000 Q
b11000000000000000000000 ?
b11000000000000000000000 `
b100000000100 A
b100000000100 ^
b110 @
b110 _
b101 9
b101 T
b101 Z
b110 2
b110 U
b110 X
b101 !
b101 5
b11000000000001010110011 -
b11000000000001010110011 W
b11000000000001010110011 "
b11000000000001010110011 B
b11000000000001010110011 j
b1010 i
b101 8
b101 S
b1010 #
b1010 C
b101100 <
b101100 a
b1001 '
b11110 +
b101100 ;
b100000101100 =
b101000 >
b101000 b
1&
#300
0&
#305
1G
b0 0
b0 P
b0 1
b0 K
b0 I
b0 N
1:
b0 6
b0 Q
b100 J
b100 M
b100 f
1h
1g
04
b11111110000000000000000000000000 ?
b11111110000000000000000000000000 `
b11111111111111111111111111110100 A
b11111111111111111111111111110100 ^
b11111111111111111111111111100000 @
b11111111111111111111111111100000 _
b1100011 D
b1100011 [
b1100011 e
b10101 9
b10101 T
b10101 Z
b0 2
b0 U
b0 X
b1111111 E
b1111111 \
b1111111 d
b11111110000000000000101011100011 -
b11111110000000000000101011100011 W
b11111110000000000000101011100011 "
b11111110000000000000101011100011 B
b11111110000000000000101011100011 j
b1011 i
b1011 #
b1011 C
b100000 <
b100000 a
b110000 ;
b100000 =
b101100 >
b101100 b
b101 (
b1010 '
b11111 +
1&
#310
0&
#315
b1101 0
b1101 P
b1000 1
b1000 K
0G
b1101 I
b1101 N
0:
b101 7
b101 L
b101 R
b1000 6
b1000 Q
14
b0 J
b0 M
b0 f
0h
0g
b10101010000000000000000 ?
b10101010000000000000000 `
b110 A
b110 ^
b101 @
b101 _
b110011 D
b110011 [
b110011 e
b110 9
b110 T
b110 Z
b1010 3
b1010 V
b1010 Y
b101 2
b101 U
b101 X
b0 E
b0 \
b0 d
b10101010000001100110011 -
b10101010000001100110011 W
b10101010000001100110011 "
b10101010000001100110011 B
b10101010000001100110011 j
b1000 i
b1000 #
b1000 C
b100100 <
b100100 a
b1011 '
b100000 +
b100100 ;
b100110 =
b100000 >
b100000 b
1&
#320
0&
#325
b1000 0
b1000 P
b1000 I
b1000 N
b0 7
b0 L
b0 R
b10100000000000000000000 ?
b10100000000000000000000 `
b1010 A
b1010 ^
b1010 9
b1010 T
b1010 Z
b0 3
b0 V
b0 Y
b10100000000010100110011 -
b10100000000010100110011 W
b10100000000010100110011 "
b10100000000010100110011 B
b10100000000010100110011 j
b1001 i
b1001 #
b1001 C
b101000 <
b101000 a
b101000 ;
b101110 =
b100100 >
b100100 b
b1000 '
b100001 +
1&
#330
0&
#335
b1101 0
b1101 P
b1101 I
b1101 N
b1101 1
b1101 K
b1101 6
b1101 Q
b11000000000000000000000 ?
b11000000000000000000000 `
b100000000100 A
b100000000100 ^
b110 @
b110 _
b101 9
b101 T
b101 Z
b110 2
b110 U
b110 X
b1000 !
b1000 5
b11000000000001010110011 -
b11000000000001010110011 W
b11000000000001010110011 "
b11000000000001010110011 B
b11000000000001010110011 j
b1010 i
b1000 8
b1000 S
b1010 #
b1010 C
b101100 <
b101100 a
b1001 '
b100010 +
b101100 ;
b100000101100 =
b101000 >
b101000 b
1&
#340
0&
#345
1G
b0 0
b0 P
b0 1
b0 K
b0 I
b0 N
1:
b0 6
b0 Q
b100 J
b100 M
b100 f
1h
1g
04
b11111110000000000000000000000000 ?
b11111110000000000000000000000000 `
b11111111111111111111111111110100 A
b11111111111111111111111111110100 ^
b11111111111111111111111111100000 @
b11111111111111111111111111100000 _
b1100011 D
b1100011 [
b1100011 e
b10101 9
b10101 T
b10101 Z
b0 2
b0 U
b0 X
b1111111 E
b1111111 \
b1111111 d
b11111110000000000000101011100011 -
b11111110000000000000101011100011 W
b11111110000000000000101011100011 "
b11111110000000000000101011100011 B
b11111110000000000000101011100011 j
b1011 i
b1011 #
b1011 C
b100000 <
b100000 a
b110000 ;
b100000 =
b101100 >
b101100 b
b1000 (
b1010 '
b100011 +
1&
#350
0&
#355
b10101 0
b10101 P
b1101 1
b1101 K
0G
b10101 I
b10101 N
0:
b1000 7
b1000 L
b1000 R
b1101 6
b1101 Q
14
b0 J
b0 M
b0 f
0h
0g
b10101010000000000000000 ?
b10101010000000000000000 `
b110 A
b110 ^
b101 @
b101 _
b110011 D
b110011 [
b110011 e
b110 9
b110 T
b110 Z
b1010 3
b1010 V
b1010 Y
b101 2
b101 U
b101 X
b0 E
b0 \
b0 d
b10101010000001100110011 -
b10101010000001100110011 W
b10101010000001100110011 "
b10101010000001100110011 B
b10101010000001100110011 j
b1000 i
b1000 #
b1000 C
b100100 <
b100100 a
b1011 '
b100100 +
b100100 ;
b100110 =
b100000 >
b100000 b
1&
#360
0&
#365
b1101 0
b1101 P
b1101 I
b1101 N
b0 7
b0 L
b0 R
b10100000000000000000000 ?
b10100000000000000000000 `
b1010 A
b1010 ^
b1010 9
b1010 T
b1010 Z
b0 3
b0 V
b0 Y
b10100000000010100110011 -
b10100000000010100110011 W
b10100000000010100110011 "
b10100000000010100110011 B
b10100000000010100110011 j
b1001 i
b1001 #
b1001 C
b101000 <
b101000 a
b101000 ;
b101110 =
b100100 >
b100100 b
b1000 '
b100101 +
1&
#370
0&
#375
b10101 0
b10101 P
b10101 I
b10101 N
b10101 1
b10101 K
b10101 6
b10101 Q
b11000000000000000000000 ?
b11000000000000000000000 `
b100000000100 A
b100000000100 ^
b110 @
b110 _
b101 9
b101 T
b101 Z
b110 2
b110 U
b110 X
b1101 !
b1101 5
b11000000000001010110011 -
b11000000000001010110011 W
b11000000000001010110011 "
b11000000000001010110011 B
b11000000000001010110011 j
b1010 i
b1101 8
b1101 S
b1010 #
b1010 C
b101100 <
b101100 a
b1001 '
b100110 +
b101100 ;
b100000101100 =
b101000 >
b101000 b
1&
#380
0&
#385
1G
b0 0
b0 P
b0 1
b0 K
b0 I
b0 N
1:
b0 6
b0 Q
b100 J
b100 M
b100 f
1h
1g
04
b11111110000000000000000000000000 ?
b11111110000000000000000000000000 `
b11111111111111111111111111110100 A
b11111111111111111111111111110100 ^
b11111111111111111111111111100000 @
b11111111111111111111111111100000 _
b1100011 D
b1100011 [
b1100011 e
b10101 9
b10101 T
b10101 Z
b0 2
b0 U
b0 X
b1111111 E
b1111111 \
b1111111 d
b11111110000000000000101011100011 -
b11111110000000000000101011100011 W
b11111110000000000000101011100011 "
b11111110000000000000101011100011 B
b11111110000000000000101011100011 j
b1011 i
b1011 #
b1011 C
b100000 <
b100000 a
b110000 ;
b100000 =
b101100 >
b101100 b
b1101 (
b1010 '
b100111 +
1&
#390
0&
#395
b100010 0
b100010 P
b10101 1
b10101 K
0G
b100010 I
b100010 N
0:
b1101 7
b1101 L
b1101 R
b10101 6
b10101 Q
14
b0 J
b0 M
b0 f
0h
0g
b10101010000000000000000 ?
b10101010000000000000000 `
b110 A
b110 ^
b101 @
b101 _
b110011 D
b110011 [
b110011 e
b110 9
b110 T
b110 Z
b1010 3
b1010 V
b1010 Y
b101 2
b101 U
b101 X
b0 E
b0 \
b0 d
b10101010000001100110011 -
b10101010000001100110011 W
b10101010000001100110011 "
b10101010000001100110011 B
b10101010000001100110011 j
b1000 i
b1000 #
b1000 C
b100100 <
b100100 a
b1011 '
b101000 +
b100100 ;
b100110 =
b100000 >
b100000 b
1&
#400
0&
#405
b10101 0
b10101 P
b10101 I
b10101 N
b0 7
b0 L
b0 R
b10100000000000000000000 ?
b10100000000000000000000 `
b1010 A
b1010 ^
b1010 9
b1010 T
b1010 Z
b0 3
b0 V
b0 Y
b10100000000010100110011 -
b10100000000010100110011 W
b10100000000010100110011 "
b10100000000010100110011 B
b10100000000010100110011 j
b1001 i
b1001 #
b1001 C
b101000 <
b101000 a
b101000 ;
b101110 =
b100100 >
b100100 b
b1000 '
b101001 +
1&
#410
0&
